{
  "swagger": "2.0",
  "info": {
    "title": "Mimiland CDN API",
    "version": "1.0",
    "contact": {
      "name": "Mimiland CDN",
      "email": "thanh.le@topebox.com"
    }
  },
  "tags": [
    {
      "name": "MimilandCDNService"
    },
    {
      "name": "MimilandCDNItemDesignService"
    }
  ],
  "consumes": [
    "application/json"
  ],
  "produces": [
    "application/json"
  ],
  "paths": {
    "/": {
      "get": {
        "summary": "Health - GET - check health by home",
        "description": "Use this API to  check health",
        "operationId": "MimilandCDNService_Index",
        "responses": {
          "200": {
            "description": "A successful response.",
            "schema": {
              "$ref": "#/definitions/cdnCDNIndexReply"
            }
          },
          "default": {
            "description": "An unexpected error response.",
            "schema": {
              "$ref": "#/definitions/rpcStatus"
            }
          }
        },
        "tags": [
          "MimilandCDNService"
        ]
      }
    },
    "/ping": {
      "get": {
        "summary": "Health - check health by ping",
        "description": "Use this API to ping , check health system",
        "operationId": "MimilandCDNService_Ping",
        "responses": {
          "200": {
            "description": "A successful response.",
            "schema": {
              "$ref": "#/definitions/cdnCDNPingReply"
            }
          },
          "default": {
            "description": "An unexpected error response.",
            "schema": {
              "$ref": "#/definitions/rpcStatus"
            }
          }
        },
        "tags": [
          "MimilandCDNService"
        ]
      }
    },
    "/v1/blacklists": {
      "get": {
        "summary": "Blacklist - Get list",
        "description": "Blacklist - Get list",
        "operationId": "MimilandCDNItemDesignService_GetListBlacklist",
        "responses": {
          "200": {
            "description": "A successful response.",
            "schema": {
              "$ref": "#/definitions/cdnGetListBlacklistResponse"
            }
          },
          "default": {
            "description": "An unexpected error response.",
            "schema": {
              "$ref": "#/definitions/rpcStatus"
            }
          }
        },
        "tags": [
          "MimilandCDNItemDesignService"
        ]
      },
      "post": {
        "summary": "Blacklist - Create",
        "description": "Blacklist - Create",
        "operationId": "MimilandCDNItemDesignService_CreateBlacklist",
        "responses": {
          "200": {
            "description": "A successful response.",
            "schema": {
              "$ref": "#/definitions/cdnCreateBlacklistResponse"
            }
          },
          "default": {
            "description": "An unexpected error response.",
            "schema": {
              "$ref": "#/definitions/rpcStatus"
            }
          }
        },
        "parameters": [
          {
            "name": "body",
            "in": "body",
            "required": true,
            "schema": {
              "$ref": "#/definitions/cdnCreateBlacklistRequest"
            }
          }
        ],
        "tags": [
          "MimilandCDNItemDesignService"
        ]
      }
    },
    "/v1/blacklists/{id}": {
      "get": {
        "summary": "Blacklist - Get by ID",
        "description": "Blacklist - Get by ID",
        "operationId": "MimilandCDNItemDesignService_GetBlacklistByID",
        "responses": {
          "200": {
            "description": "A successful response.",
            "schema": {
              "$ref": "#/definitions/cdnGetBlacklistByIDResponse"
            }
          },
          "default": {
            "description": "An unexpected error response.",
            "schema": {
              "$ref": "#/definitions/rpcStatus"
            }
          }
        },
        "parameters": [
          {
            "name": "id",
            "in": "path",
            "required": true,
            "type": "string"
          }
        ],
        "tags": [
          "MimilandCDNItemDesignService"
        ]
      },
      "delete": {
        "summary": "Blacklist - Delete by ID",
        "description": "Blacklist - Delete by ID",
        "operationId": "MimilandCDNItemDesignService_DeleteBlacklistByID",
        "responses": {
          "200": {
            "description": "A successful response.",
            "schema": {
              "$ref": "#/definitions/cdnDeleteBlacklistByIDResponse"
            }
          },
          "default": {
            "description": "An unexpected error response.",
            "schema": {
              "$ref": "#/definitions/rpcStatus"
            }
          }
        },
        "parameters": [
          {
            "name": "id",
            "in": "path",
            "required": true,
            "type": "string"
          }
        ],
        "tags": [
          "MimilandCDNItemDesignService"
        ]
      },
      "put": {
        "summary": "Blacklist - Update",
        "description": "Blacklist - Update",
        "operationId": "MimilandCDNItemDesignService_UpdateBlacklist",
        "responses": {
          "200": {
            "description": "A successful response.",
            "schema": {
              "$ref": "#/definitions/cdnUpdateBlacklistResponse"
            }
          },
          "default": {
            "description": "An unexpected error response.",
            "schema": {
              "$ref": "#/definitions/rpcStatus"
            }
          }
        },
        "parameters": [
          {
            "name": "id",
            "in": "path",
            "required": true,
            "type": "string"
          },
          {
            "name": "body",
            "in": "body",
            "required": true,
            "schema": {
              "type": "object",
              "properties": {
                "name": {
                  "type": "string"
                },
                "thresholds": {
                  "type": "array",
                  "items": {
                    "$ref": "#/definitions/cdnThreshold"
                  }
                }
              }
            }
          }
        ],
        "tags": [
          "MimilandCDNItemDesignService"
        ]
      }
    },
    "/v1/dev/feature-configs": {
      "get": {
        "summary": "Feature config - Get list config",
        "description": "Feature config - Get list config",
        "operationId": "MimilandCDNItemDesignService_GetListFeatureConfig",
        "responses": {
          "200": {
            "description": "A successful response.",
            "schema": {
              "$ref": "#/definitions/cdnGetListFeatureConfigResponse"
            }
          },
          "default": {
            "description": "An unexpected error response.",
            "schema": {
              "$ref": "#/definitions/rpcStatus"
            }
          }
        },
        "parameters": [
          {
            "name": "types",
            "in": "query",
            "required": false,
            "type": "array",
            "items": {
              "type": "string"
            },
            "collectionFormat": "multi"
          }
        ],
        "tags": [
          "MimilandCDNItemDesignService"
        ]
      },
      "post": {
        "summary": "Feature config - Create config by id",
        "description": "Feature config - Create config by id",
        "operationId": "MimilandCDNItemDesignService_CreateFeatureConfig",
        "responses": {
          "200": {
            "description": "A successful response.",
            "schema": {
              "$ref": "#/definitions/cdnCreateFeatureConfigResponse"
            }
          },
          "default": {
            "description": "An unexpected error response.",
            "schema": {
              "$ref": "#/definitions/rpcStatus"
            }
          }
        },
        "parameters": [
          {
            "name": "body",
            "in": "body",
            "required": true,
            "schema": {
              "$ref": "#/definitions/cdnCreateFeatureConfigRequest"
            }
          }
        ],
        "tags": [
          "MimilandCDNItemDesignService"
        ]
      }
    },
    "/v1/dev/feature-configs/{id}": {
      "get": {
        "summary": "Feature config - Get config by id",
        "description": "Feature config - Get config by id",
        "operationId": "MimilandCDNItemDesignService_GetFeatureConfigByID",
        "responses": {
          "200": {
            "description": "A successful response.",
            "schema": {
              "$ref": "#/definitions/cdnGetFeatureConfigByIDResponse"
            }
          },
          "default": {
            "description": "An unexpected error response.",
            "schema": {
              "$ref": "#/definitions/rpcStatus"
            }
          }
        },
        "parameters": [
          {
            "name": "id",
            "in": "path",
            "required": true,
            "type": "string"
          }
        ],
        "tags": [
          "MimilandCDNItemDesignService"
        ]
      },
      "delete": {
        "summary": "Feature config - Get config by id",
        "description": "Feature config - Get config by id",
        "operationId": "MimilandCDNItemDesignService_DeleteFeatureConfigByID",
        "responses": {
          "200": {
            "description": "A successful response.",
            "schema": {
              "$ref": "#/definitions/cdnDeleteFeatureConfigByIDResponse"
            }
          },
          "default": {
            "description": "An unexpected error response.",
            "schema": {
              "$ref": "#/definitions/rpcStatus"
            }
          }
        },
        "parameters": [
          {
            "name": "id",
            "in": "path",
            "required": true,
            "type": "string"
          }
        ],
        "tags": [
          "MimilandCDNItemDesignService"
        ]
      },
      "put": {
        "summary": "Feature config - Update feature config",
        "description": "Feature config - Update feature config",
        "operationId": "MimilandCDNItemDesignService_UpdateFeatureConfig",
        "responses": {
          "200": {
            "description": "A successful response.",
            "schema": {
              "$ref": "#/definitions/cdnUpdateFeatureConfigResponse"
            }
          },
          "default": {
            "description": "An unexpected error response.",
            "schema": {
              "$ref": "#/definitions/rpcStatus"
            }
          }
        },
        "parameters": [
          {
            "name": "id",
            "in": "path",
            "required": true,
            "type": "string"
          },
          {
            "name": "body",
            "in": "body",
            "required": true,
            "schema": {
              "type": "object",
              "properties": {
                "env": {
                  "type": "string"
                },
                "type": {
                  "type": "string"
                },
                "version": {
                  "type": "string"
                },
                "isUseGameServer": {
                  "type": "boolean"
                },
                "isUseMimilandAuth": {
                  "type": "boolean"
                },
                "active": {
                  "type": "boolean"
                },
                "bucketName": {
                  "type": "string"
                },
                "folder": {
                  "type": "string"
                },
                "maxSize": {
                  "type": "integer",
                  "format": "int32"
                },
                "isOverlap": {
                  "type": "boolean"
                },
                "validType": {
                  "type": "array",
                  "items": {
                    "type": "string"
                  }
                },
                "signUrlExpireMinutes": {
                  "type": "integer",
                  "format": "int32"
                },
                "isVision": {
                  "type": "boolean"
                },
                "pathPattern": {
                  "type": "string"
                },
                "blacklistID": {
                  "type": "string"
                }
              }
            }
          }
        ],
        "tags": [
          "MimilandCDNItemDesignService"
        ]
      }
    },
    "/v1/dev/storage-views": {
      "get": {
        "summary": "Views - Get list",
        "description": "Views - Get list",
        "operationId": "MimilandCDNItemDesignService_GetListStorageView",
        "responses": {
          "200": {
            "description": "A successful response.",
            "schema": {
              "$ref": "#/definitions/cdnGetListStorageViewResponse"
            }
          },
          "default": {
            "description": "An unexpected error response.",
            "schema": {
              "$ref": "#/definitions/rpcStatus"
            }
          }
        },
        "parameters": [
          {
            "name": "ids",
            "in": "query",
            "required": false,
            "type": "array",
            "items": {
              "type": "string"
            },
            "collectionFormat": "multi"
          },
          {
            "name": "clientCode",
            "in": "query",
            "required": false,
            "type": "string"
          },
          {
            "name": "objectType",
            "in": "query",
            "required": false,
            "type": "string"
          },
          {
            "name": "objectId",
            "in": "query",
            "required": false,
            "type": "string"
          },
          {
            "name": "bucket",
            "in": "query",
            "required": false,
            "type": "string"
          },
          {
            "name": "featureType",
            "in": "query",
            "required": false,
            "type": "string"
          },
          {
            "name": "sortBy",
            "in": "query",
            "required": false,
            "type": "string"
          },
          {
            "name": "top",
            "in": "query",
            "required": false,
            "type": "integer",
            "format": "int32"
          },
          {
            "name": "isSortDesc",
            "in": "query",
            "required": false,
            "type": "boolean"
          }
        ],
        "tags": [
          "MimilandCDNItemDesignService"
        ]
      }
    },
    "/v1/download/{featureType}/{id}": {
      "get": {
        "summary": "Item design - Download object by id",
        "description": "Item design - Download object by id",
        "operationId": "MimilandCDNItemDesignService_Download",
        "responses": {
          "200": {
            "description": "A successful response.(streaming responses)",
            "schema": {
              "type": "object",
              "properties": {
                "result": {
                  "$ref": "#/definitions/apiHttpBody"
                },
                "error": {
                  "$ref": "#/definitions/rpcStatus"
                }
              },
              "title": "Stream result of apiHttpBody"
            }
          },
          "default": {
            "description": "An unexpected error response.",
            "schema": {
              "$ref": "#/definitions/rpcStatus"
            }
          }
        },
        "parameters": [
          {
            "name": "featureType",
            "in": "path",
            "required": true,
            "type": "string"
          },
          {
            "name": "id",
            "in": "path",
            "required": true,
            "type": "string"
          }
        ],
        "tags": [
          "MimilandCDNItemDesignService"
        ]
      }
    },
    "/v1/features": {
      "get": {
        "summary": "Item design - List Object V2",
        "description": "Item design - Get list object",
        "operationId": "MimilandCDNItemDesignService_GetListObjectV2",
        "responses": {
          "200": {
            "description": "A successful response.",
            "schema": {
              "$ref": "#/definitions/cdnGetListObjectV2Response"
            }
          },
          "default": {
            "description": "An unexpected error response.",
            "schema": {
              "$ref": "#/definitions/rpcStatus"
            }
          }
        },
        "parameters": [
          {
            "name": "objectId",
            "in": "query",
            "required": false,
            "type": "string"
          },
          {
            "name": "objectType",
            "in": "query",
            "required": false,
            "type": "string"
          },
          {
            "name": "ownerId",
            "in": "query",
            "required": false,
            "type": "string"
          },
          {
            "name": "featureTypes",
            "in": "query",
            "required": false,
            "type": "array",
            "items": {
              "type": "string"
            },
            "collectionFormat": "multi"
          },
          {
            "name": "ids",
            "in": "query",
            "required": false,
            "type": "array",
            "items": {
              "type": "string"
            },
            "collectionFormat": "multi"
          },
          {
            "name": "sortBy",
            "in": "query",
            "required": false,
            "type": "string"
          },
          {
            "name": "take",
            "in": "query",
            "required": false,
            "type": "string",
            "format": "int64"
          },
          {
            "name": "skip",
            "in": "query",
            "required": false,
            "type": "string",
            "format": "int64"
          },
          {
            "name": "isSortDesc",
            "in": "query",
            "required": false,
            "type": "boolean"
          },
          {
            "name": "status",
            "in": "query",
            "required": false,
            "type": "array",
            "items": {
              "type": "string",
              "enum": [
                "unknown",
                "rejected",
                "accepted"
              ]
            },
            "collectionFormat": "multi"
          }
        ],
        "tags": [
          "MimilandCDNItemDesignService"
        ]
      }
    },
    "/v1/features/{featureType}/list": {
      "get": {
        "summary": "Item design - List Object",
        "description": "Item design - Get list object by objectType and objectID",
        "operationId": "MimilandCDNItemDesignService_GetListObject",
        "responses": {
          "200": {
            "description": "A successful response.",
            "schema": {
              "$ref": "#/definitions/cdnGetListObjectResponse"
            }
          },
          "default": {
            "description": "An unexpected error response.",
            "schema": {
              "$ref": "#/definitions/rpcStatus"
            }
          }
        },
        "parameters": [
          {
            "name": "featureType",
            "in": "path",
            "required": true,
            "type": "string"
          },
          {
            "name": "objectId",
            "in": "query",
            "required": false,
            "type": "string"
          },
          {
            "name": "objectType",
            "in": "query",
            "required": false,
            "type": "string"
          },
          {
            "name": "ownerId",
            "in": "query",
            "required": false,
            "type": "string"
          },
          {
            "name": "ids",
            "in": "query",
            "required": false,
            "type": "array",
            "items": {
              "type": "string"
            },
            "collectionFormat": "multi"
          },
          {
            "name": "sortBy",
            "in": "query",
            "required": false,
            "type": "string"
          },
          {
            "name": "take",
            "in": "query",
            "required": false,
            "type": "string",
            "format": "int64"
          },
          {
            "name": "skip",
            "in": "query",
            "required": false,
            "type": "string",
            "format": "int64"
          },
          {
            "name": "isSortDesc",
            "in": "query",
            "required": false,
            "type": "boolean"
          },
          {
            "name": "status",
            "in": "query",
            "required": false,
            "type": "array",
            "items": {
              "type": "string",
              "enum": [
                "unknown",
                "rejected",
                "accepted"
              ]
            },
            "collectionFormat": "multi"
          }
        ],
        "tags": [
          "MimilandCDNItemDesignService"
        ]
      }
    },
    "/v1/features/{featureType}/{id}": {
      "get": {
        "summary": "get item design",
        "description": "get item design",
        "operationId": "MimilandCDNItemDesignService_GetItemDesign",
        "responses": {
          "200": {
            "description": "A successful response.",
            "schema": {
              "$ref": "#/definitions/cdnGetItemDesignResponse"
            }
          },
          "default": {
            "description": "An unexpected error response.",
            "schema": {
              "$ref": "#/definitions/rpcStatus"
            }
          }
        },
        "parameters": [
          {
            "name": "featureType",
            "in": "path",
            "required": true,
            "type": "string"
          },
          {
            "name": "id",
            "in": "path",
            "required": true,
            "type": "string"
          }
        ],
        "tags": [
          "MimilandCDNItemDesignService"
        ]
      },
      "delete": {
        "summary": "Item design - Delete item design",
        "description": "Item design - Delete item design",
        "operationId": "MimilandCDNItemDesignService_DeleteItemDesign",
        "responses": {
          "200": {
            "description": "A successful response.",
            "schema": {
              "$ref": "#/definitions/cdnDeleteItemDesignResponse"
            }
          },
          "default": {
            "description": "An unexpected error response.",
            "schema": {
              "$ref": "#/definitions/rpcStatus"
            }
          }
        },
        "parameters": [
          {
            "name": "featureType",
            "in": "path",
            "required": true,
            "type": "string"
          },
          {
            "name": "id",
            "in": "path",
            "required": true,
            "type": "string"
          }
        ],
        "tags": [
          "MimilandCDNItemDesignService"
        ]
      }
    },
    "/v1/image/{id}": {
      "get": {
        "summary": "get link for download image",
        "description": "get link image",
        "operationId": "MimilandCDNService_GetLinkImage",
        "responses": {
          "200": {
            "description": "A successful response.",
            "schema": {
              "$ref": "#/definitions/cdnGetLinkImageResponse"
            }
          },
          "default": {
            "description": "An unexpected error response.",
            "schema": {
              "$ref": "#/definitions/rpcStatus"
            }
          }
        },
        "parameters": [
          {
            "name": "id",
            "in": "path",
            "required": true,
            "type": "string"
          },
          {
            "name": "fileType",
            "in": "query",
            "required": false,
            "type": "string"
          },
          {
            "name": "expiredAt",
            "in": "query",
            "required": false,
            "type": "string",
            "format": "int64"
          }
        ],
        "tags": [
          "MimilandCDNService"
        ]
      }
    },
    "/v1/info/servertime": {
      "get": {
        "summary": "Info - GET - server time (RFC3339)",
        "description": "get server time (RFC3339)",
        "operationId": "MimilandCDNService_GetTimeServer",
        "responses": {
          "200": {
            "description": "A successful response.",
            "schema": {
              "$ref": "#/definitions/cdnGetCDNTimeServerReply"
            }
          },
          "default": {
            "description": "An unexpected error response.",
            "schema": {
              "$ref": "#/definitions/rpcStatus"
            }
          }
        },
        "tags": [
          "MimilandCDNService"
        ]
      }
    },
    "/v1/list/features": {
      "post": {
        "summary": "Item design - List Object",
        "description": "Item design - Get list object",
        "operationId": "MimilandCDNItemDesignService_PostGetListObject",
        "responses": {
          "200": {
            "description": "A successful response.",
            "schema": {
              "$ref": "#/definitions/cdnGetListObjectV2Response"
            }
          },
          "default": {
            "description": "An unexpected error response.",
            "schema": {
              "$ref": "#/definitions/rpcStatus"
            }
          }
        },
        "parameters": [
          {
            "name": "body",
            "in": "body",
            "required": true,
            "schema": {
              "$ref": "#/definitions/cdnGetListObjectV2Request"
            }
          }
        ],
        "tags": [
          "MimilandCDNItemDesignService"
        ]
      }
    }
  },
  "definitions": {
    "apiHttpBody": {
      "type": "object",
      "properties": {
        "contentType": {
          "type": "string",
          "description": "The HTTP Content-Type header value specifying the content type of the body."
        },
        "data": {
          "type": "string",
          "format": "byte",
          "description": "The HTTP request/response body as raw binary."
        },
        "extensions": {
          "type": "array",
          "items": {
            "$ref": "#/definitions/protobufAny"
          },
          "description": "Application specific response metadata. Must be set in the first response\nfor streaming APIs."
        }
      },
      "description": "Message that represents an arbitrary HTTP body. It should only be used for\npayload formats that can't be represented as JSON, such as raw binary or\nan HTML page.\n\n\nThis message can be used both in streaming and non-streaming API methods in\nthe request as well as the response.\n\nIt can be used as a top-level request field, which is convenient if one\nwants to extract parameters from either the URL or HTTP template into the\nrequest fields and also want access to the raw HTTP body.\n\nExample:\n\n    message GetResourceRequest {\n      // A unique request id.\n      string request_id = 1;\n\n      // The raw HTTP body is bound to this field.\n      google.api.HttpBody http_body = 2;\n\n    }\n\n    service ResourceService {\n      rpc GetResource(GetResourceRequest)\n        returns (google.api.HttpBody);\n      rpc UpdateResource(google.api.HttpBody)\n        returns (google.protobuf.Empty);\n\n    }\n\nExample with streaming methods:\n\n    service CaldavService {\n      rpc GetCalendar(stream google.api.HttpBody)\n        returns (stream google.api.HttpBody);\n      rpc UpdateCalendar(stream google.api.HttpBody)\n        returns (stream google.api.HttpBody);\n\n    }\n\nUse of this type only changes how the request and response bodies are\nhandled, all other features will continue to work unchanged."
    },
    "cdnAutoStatus": {
      "type": "object",
      "properties": {
        "approved": {
          "type": "number",
          "format": "float"
        },
        "warning": {
          "type": "number",
          "format": "float"
        },
        "rejected": {
          "type": "number",
          "format": "float"
        }
      }
    },
    "cdnBlacklistObject": {
      "type": "object",
      "properties": {
        "id": {
          "type": "string"
        },
        "name": {
          "type": "string"
        },
        "thresholds": {
          "type": "array",
          "items": {
            "$ref": "#/definitions/cdnThreshold"
          }
        }
      }
    },
    "cdnCDNIndexReply": {
      "type": "object",
      "properties": {
        "name": {
          "type": "string"
        },
        "version": {
          "type": "string"
        },
        "author": {
          "type": "string"
        }
      }
    },
    "cdnCDNPingReply": {
      "type": "object",
      "properties": {
        "code": {
          "type": "integer",
          "format": "int32"
        },
        "message": {
          "type": "string"
        }
      }
    },
    "cdnCreateBlacklistRequest": {
      "type": "object",
      "properties": {
        "name": {
          "type": "string"
        },
        "thresholds": {
          "type": "array",
          "items": {
            "$ref": "#/definitions/cdnThreshold"
          }
        }
      }
    },
    "cdnCreateBlacklistResponse": {
      "type": "object",
      "properties": {
        "code": {
          "type": "integer",
          "format": "int32"
        },
        "message": {
          "type": "string"
        },
        "id": {
          "type": "string"
        },
        "name": {
          "type": "string"
        },
        "thresholds": {
          "type": "array",
          "items": {
            "$ref": "#/definitions/cdnThreshold"
          }
        },
        "createdAt": {
          "type": "string",
          "format": "date-time"
        },
        "updatedAt": {
          "type": "string",
          "format": "date-time"
        }
      }
    },
    "cdnCreateFeatureConfigRequest": {
      "type": "object",
      "properties": {
        "env": {
          "type": "string"
        },
        "type": {
          "type": "string"
        },
        "version": {
          "type": "string"
        },
        "isUseGameServer": {
          "type": "boolean"
        },
        "isUseMimilandAuth": {
          "type": "boolean"
        },
        "active": {
          "type": "boolean"
        },
        "bucketName": {
          "type": "string"
        },
        "folder": {
          "type": "string"
        },
        "maxSize": {
          "type": "integer",
          "format": "int32"
        },
        "isOverlap": {
          "type": "boolean"
        },
        "validType": {
          "type": "array",
          "items": {
            "type": "string"
          }
        },
        "createdAt": {
          "type": "string"
        },
        "updatedAt": {
          "type": "string"
        },
        "signUrlExpireMinutes": {
          "type": "integer",
          "format": "int32"
        },
        "isVision": {
          "type": "boolean"
        },
        "pathPattern": {
          "type": "string"
        },
        "blacklistID": {
          "type": "string"
        }
      }
    },
    "cdnCreateFeatureConfigResponse": {
      "type": "object",
      "properties": {
        "code": {
          "type": "integer",
          "format": "int32"
        },
        "message": {
          "type": "string"
        },
        "id": {
          "type": "string"
        },
        "env": {
          "type": "string"
        },
        "type": {
          "type": "string"
        },
        "version": {
          "type": "string"
        },
        "isUseGameServer": {
          "type": "boolean"
        },
        "isUseMimilandAuth": {
          "type": "boolean"
        },
        "active": {
          "type": "boolean"
        },
        "bucketName": {
          "type": "string"
        },
        "folder": {
          "type": "string"
        },
        "maxSize": {
          "type": "integer",
          "format": "int32"
        },
        "isOverlap": {
          "type": "boolean"
        },
        "validType": {
          "type": "array",
          "items": {
            "type": "string"
          }
        },
        "signUrlExpireMinutes": {
          "type": "integer",
          "format": "int32"
        },
        "isVision": {
          "type": "boolean"
        },
        "pathPattern": {
          "type": "string"
        },
        "labelBlacklist": {
          "$ref": "#/definitions/cdnBlacklistObject"
        }
      }
    },
    "cdnDeleteBlacklistByIDResponse": {
      "type": "object",
      "properties": {
        "code": {
          "type": "integer",
          "format": "int32"
        },
        "message": {
          "type": "string"
        }
      }
    },
    "cdnDeleteFeatureConfigByIDResponse": {
      "type": "object",
      "properties": {
        "code": {
          "type": "integer",
          "format": "int32"
        },
        "message": {
          "type": "string"
        }
      }
    },
    "cdnDeleteItemDesignResponse": {
      "type": "object",
      "properties": {
        "code": {
          "type": "integer",
          "format": "int32"
        },
        "message": {
          "type": "string"
        }
      }
    },
    "cdnGetBlacklistByIDResponse": {
      "type": "object",
      "properties": {
        "code": {
          "type": "integer",
          "format": "int32"
        },
        "message": {
          "type": "string"
        },
        "id": {
          "type": "string"
        },
        "name": {
          "type": "string"
        },
        "thresholds": {
          "type": "array",
          "items": {
            "$ref": "#/definitions/cdnThreshold"
          }
        },
        "createdAt": {
          "type": "string",
          "format": "date-time"
        },
        "updatedAt": {
          "type": "string",
          "format": "date-time"
        }
      }
    },
    "cdnGetCDNTimeServerReply": {
      "type": "object",
      "properties": {
        "TimeString": {
          "type": "string"
        },
        "UnixTime": {
          "type": "string",
          "format": "int64"
        },
        "code": {
          "type": "integer",
          "format": "int32"
        },
        "message": {
          "type": "string"
        }
      }
    },
    "cdnGetFeatureConfigByIDResponse": {
      "type": "object",
      "properties": {
        "code": {
          "type": "integer",
          "format": "int32"
        },
        "message": {
          "type": "string"
        },
        "id": {
          "type": "string"
        },
        "env": {
          "type": "string"
        },
        "type": {
          "type": "string"
        },
        "version": {
          "type": "string"
        },
        "isUseGameServer": {
          "type": "boolean"
        },
        "isUseMimilandAuth": {
          "type": "boolean"
        },
        "active": {
          "type": "boolean"
        },
        "bucketName": {
          "type": "string"
        },
        "folder": {
          "type": "string"
        },
        "maxSize": {
          "type": "integer",
          "format": "int32"
        },
        "isOverlap": {
          "type": "boolean"
        },
        "validType": {
          "type": "array",
          "items": {
            "type": "string"
          }
        },
        "signUrlExpireMinutes": {
          "type": "integer",
          "format": "int32"
        },
        "isVision": {
          "type": "boolean"
        },
        "pathPattern": {
          "type": "string"
        },
        "labelBlacklist": {
          "$ref": "#/definitions/cdnBlacklistObject"
        }
      }
    },
    "cdnGetItemDesignResponse": {
      "type": "object",
      "properties": {
        "code": {
          "type": "integer",
          "format": "int32"
        },
        "message": {
          "type": "string"
        },
        "url": {
          "type": "string"
        },
        "objectType": {
          "type": "string"
        },
        "objectId": {
          "type": "string"
        },
        "id": {
          "type": "string"
        },
        "md5": {
          "type": "string"
        },
        "featureType": {
          "type": "string"
        },
        "status": {
          "type": "string"
        },
        "properties": {
          "$ref": "#/definitions/cdnProperties"
        }
      }
    },
    "cdnGetLinkImageResponse": {
      "type": "object",
      "properties": {
        "code": {
          "type": "integer",
          "format": "int32"
        },
        "message": {
          "type": "string"
        },
        "url": {
          "type": "string"
        }
      }
    },
    "cdnGetListBlacklistResponse": {
      "type": "object",
      "properties": {
        "code": {
          "type": "integer",
          "format": "int32"
        },
        "message": {
          "type": "string"
        },
        "list": {
          "type": "array",
          "items": {
            "$ref": "#/definitions/cdnGetBlacklistByIDResponse"
          }
        }
      }
    },
    "cdnGetListFeatureConfigResponse": {
      "type": "object",
      "properties": {
        "code": {
          "type": "integer",
          "format": "int32"
        },
        "message": {
          "type": "string"
        },
        "list": {
          "type": "array",
          "items": {
            "$ref": "#/definitions/cdnGetFeatureConfigByIDResponse"
          }
        }
      }
    },
    "cdnGetListObjectResponse": {
      "type": "object",
      "properties": {
        "code": {
          "type": "integer",
          "format": "int32"
        },
        "message": {
          "type": "string"
        },
        "list": {
          "type": "array",
          "items": {
            "$ref": "#/definitions/cdnObjectIemResponse"
          }
        },
        "nextKey": {
          "type": "string"
        },
        "total": {
          "type": "integer",
          "format": "int32"
        },
        "totalPage": {
          "type": "integer",
          "format": "int32"
        }
      }
    },
    "cdnGetListObjectV2Request": {
      "type": "object",
      "properties": {
        "objectId": {
          "type": "string"
        },
        "objectType": {
          "type": "string"
        },
        "ownerId": {
          "type": "string"
        },
        "featureTypes": {
          "type": "array",
          "items": {
            "type": "string"
          }
        },
        "ids": {
          "type": "array",
          "items": {
            "type": "string"
          }
        },
        "sortBy": {
          "type": "string"
        },
        "take": {
          "type": "string",
          "format": "int64"
        },
        "skip": {
          "type": "string",
          "format": "int64"
        },
        "isSortDesc": {
          "type": "boolean"
        },
        "status": {
          "type": "array",
          "items": {
            "$ref": "#/definitions/cdnObjectItemStatus"
          }
        }
      }
    },
    "cdnGetListObjectV2Response": {
      "type": "object",
      "properties": {
        "code": {
          "type": "integer",
          "format": "int32"
        },
        "message": {
          "type": "string"
        },
        "list": {
          "type": "array",
          "items": {
            "$ref": "#/definitions/cdnObjectIemResponse"
          }
        },
        "nextKey": {
          "type": "string"
        },
        "total": {
          "type": "integer",
          "format": "int32"
        },
        "totalPage": {
          "type": "integer",
          "format": "int32"
        },
        "currentPage": {
          "type": "integer",
          "format": "int32"
        }
      }
    },
    "cdnGetListStorageViewResponse": {
      "type": "object",
      "properties": {
        "code": {
          "type": "integer",
          "format": "int32"
        },
        "message": {
          "type": "string"
        },
        "views": {
          "type": "array",
          "items": {
            "$ref": "#/definitions/cdnStorageViewResponse"
          }
        },
        "totalView": {
          "type": "string",
          "format": "int64"
        }
      }
    },
    "cdnImageInfo": {
      "type": "object",
      "properties": {
        "imageType": {
          "type": "string"
        },
        "folder": {
          "type": "string"
        }
      }
    },
    "cdnObjectIemResponse": {
      "type": "object",
      "properties": {
        "id": {
          "type": "string"
        },
        "objectType": {
          "type": "string"
        },
        "objectId": {
          "type": "string"
        },
        "url": {
          "type": "string"
        },
        "md5": {
          "type": "string"
        },
        "featureType": {
          "type": "string"
        },
        "status": {
          "type": "string"
        },
        "properties": {
          "$ref": "#/definitions/cdnProperties"
        }
      }
    },
    "cdnObjectItemStatus": {
      "type": "string",
      "enum": [
        "unknown",
        "rejected",
        "accepted"
      ],
      "default": "unknown"
    },
    "cdnProperties": {
      "type": "object",
      "properties": {
        "GgML": {
          "type": "array",
          "items": {
            "$ref": "#/definitions/cdnPropertiesObject"
          }
        },
        "autoStatus": {
          "$ref": "#/definitions/cdnAutoStatus"
        }
      }
    },
    "cdnPropertiesObject": {
      "type": "object",
      "properties": {
        "Name": {
          "type": "string"
        },
        "Score": {
          "type": "number",
          "format": "float"
        }
      }
    },
    "cdnStorageViewResponse": {
      "type": "object",
      "properties": {
        "id": {
          "type": "string"
        },
        "clientCode": {
          "type": "string"
        },
        "objectType": {
          "type": "string"
        },
        "objectId": {
          "type": "string"
        },
        "bucket": {
          "type": "string"
        },
        "featureType": {
          "type": "string"
        },
        "totalView": {
          "type": "integer",
          "format": "int32"
        },
        "lastedViewAt": {
          "type": "string",
          "format": "date-time"
        }
      }
    },
    "cdnThreshold": {
      "type": "object",
      "properties": {
        "label": {
          "type": "string"
        },
        "threshold": {
          "type": "number",
          "format": "float"
        },
        "actions": {
          "type": "array",
          "items": {
            "type": "string"
          }
        }
      }
    },
    "cdnUpdateBlacklistResponse": {
      "type": "object",
      "properties": {
        "code": {
          "type": "integer",
          "format": "int32"
        },
        "message": {
          "type": "string"
        },
        "id": {
          "type": "string"
        },
        "name": {
          "type": "string"
        },
        "thresholds": {
          "type": "array",
          "items": {
            "$ref": "#/definitions/cdnThreshold"
          }
        },
        "createdAt": {
          "type": "string",
          "format": "date-time"
        },
        "updatedAt": {
          "type": "string",
          "format": "date-time"
        }
      }
    },
    "cdnUpdateFeatureConfigResponse": {
      "type": "object",
      "properties": {
        "code": {
          "type": "integer",
          "format": "int32"
        },
        "message": {
          "type": "string"
        },
        "id": {
          "type": "string"
        },
        "env": {
          "type": "string"
        },
        "type": {
          "type": "string"
        },
        "version": {
          "type": "string"
        },
        "isUseGameServer": {
          "type": "boolean"
        },
        "isUseMimilandAuth": {
          "type": "boolean"
        },
        "active": {
          "type": "boolean"
        },
        "bucketName": {
          "type": "string"
        },
        "folder": {
          "type": "string"
        },
        "maxSize": {
          "type": "integer",
          "format": "int32"
        },
        "isOverlap": {
          "type": "boolean"
        },
        "validType": {
          "type": "array",
          "items": {
            "type": "string"
          }
        },
        "signUrlExpireMinutes": {
          "type": "integer",
          "format": "int32"
        },
        "isVision": {
          "type": "boolean"
        },
        "pathPattern": {
          "type": "string"
        },
        "labelBlacklist": {
          "$ref": "#/definitions/cdnBlacklistObject"
        }
      }
    },
    "cdnUpdateItemDesignResponse": {
      "type": "object",
      "properties": {
        "code": {
          "type": "integer",
          "format": "int32"
        },
        "message": {
          "type": "string"
        },
        "id": {
          "type": "string"
        },
        "filename": {
          "type": "string"
        },
        "url": {
          "type": "string"
        },
        "md5": {
          "type": "string"
        },
        "status": {
          "type": "string"
        }
      }
    },
    "cdnUploadImageResponse": {
      "type": "object",
      "properties": {
        "code": {
          "type": "integer",
          "format": "int32"
        },
        "message": {
          "type": "string"
        },
        "filename": {
          "type": "string"
        },
        "size": {
          "type": "integer",
          "format": "int64"
        },
        "id": {
          "type": "string"
        },
        "url": {
          "type": "string"
        }
      }
    },
    "cdnUploadItemDesignResponse": {
      "type": "object",
      "properties": {
        "code": {
          "type": "integer",
          "format": "int32"
        },
        "message": {
          "type": "string"
        },
        "id": {
          "type": "string"
        },
        "filename": {
          "type": "string"
        },
        "url": {
          "type": "string"
        },
        "md5": {
          "type": "string"
        },
        "objectId": {
          "type": "string"
        },
        "objectType": {
          "type": "string"
        },
        "properties": {
          "$ref": "#/definitions/cdnProperties"
        }
      }
    },
    "protobufAny": {
      "type": "object",
      "properties": {
        "@type": {
          "type": "string",
          "description": "A URL/resource name that uniquely identifies the type of the serialized\nprotocol buffer message. This string must contain at least\none \"/\" character. The last segment of the URL's path must represent\nthe fully qualified name of the type (as in\n`path/google.protobuf.Duration`). The name should be in a canonical form\n(e.g., leading \".\" is not accepted).\n\nIn practice, teams usually precompile into the binary all types that they\nexpect it to use in the context of Any. However, for URLs which use the\nscheme `http`, `https`, or no scheme, one can optionally set up a type\nserver that maps type URLs to message definitions as follows:\n\n* If no scheme is provided, `https` is assumed.\n* An HTTP GET on the URL must yield a [google.protobuf.Type][]\n  value in binary format, or produce an error.\n* Applications are allowed to cache lookup results based on the\n  URL, or have them precompiled into a binary to avoid any\n  lookup. Therefore, binary compatibility needs to be preserved\n  on changes to types. (Use versioned type names to manage\n  breaking changes.)\n\nNote: this functionality is not currently available in the official\nprotobuf release, and it is not used for type URLs beginning with\ntype.googleapis.com.\n\nSchemes other than `http`, `https` (or the empty scheme) might be\nused with implementation specific semantics."
        }
      },
      "additionalProperties": {},
      "description": "`Any` contains an arbitrary serialized protocol buffer message along with a\nURL that describes the type of the serialized message.\n\nProtobuf library provides support to pack/unpack Any values in the form\nof utility functions or additional generated methods of the Any type.\n\nExample 1: Pack and unpack a message in C++.\n\n    Foo foo = ...;\n    Any any;\n    any.PackFrom(foo);\n    ...\n    if (any.UnpackTo(\u0026foo)) {\n      ...\n    }\n\nExample 2: Pack and unpack a message in Java.\n\n    Foo foo = ...;\n    Any any = Any.pack(foo);\n    ...\n    if (any.is(Foo.class)) {\n      foo = any.unpack(Foo.class);\n    }\n\nExample 3: Pack and unpack a message in Python.\n\n    foo = Foo(...)\n    any = Any()\n    any.Pack(foo)\n    ...\n    if any.Is(Foo.DESCRIPTOR):\n      any.Unpack(foo)\n      ...\n\nExample 4: Pack and unpack a message in Go\n\n     foo := \u0026pb.Foo{...}\n     any, err := anypb.New(foo)\n     if err != nil {\n       ...\n     }\n     ...\n     foo := \u0026pb.Foo{}\n     if err := any.UnmarshalTo(foo); err != nil {\n       ...\n     }\n\nThe pack methods provided by protobuf library will by default use\n'type.googleapis.com/full.type.name' as the type URL and the unpack\nmethods only use the fully qualified type name after the last '/'\nin the type URL, for example \"foo.bar.com/x/y.z\" will yield type\nname \"y.z\".\n\n\nJSON\n\nThe JSON representation of an `Any` value uses the regular\nrepresentation of the deserialized, embedded message, with an\nadditional field `@type` which contains the type URL. Example:\n\n    package google.profile;\n    message Person {\n      string first_name = 1;\n      string last_name = 2;\n    }\n\n    {\n      \"@type\": \"type.googleapis.com/google.profile.Person\",\n      \"firstName\": \u003cstring\u003e,\n      \"lastName\": \u003cstring\u003e\n    }\n\nIf the embedded message type is well-known and has a custom JSON\nrepresentation, that representation will be embedded adding a field\n`value` which holds the custom JSON in addition to the `@type`\nfield. Example (for message [google.protobuf.Duration][]):\n\n    {\n      \"@type\": \"type.googleapis.com/google.protobuf.Duration\",\n      \"value\": \"1.212s\"\n    }"
    },
    "rpcStatus": {
      "type": "object",
      "properties": {
        "code": {
          "type": "integer",
          "format": "int32"
        },
        "message": {
          "type": "string"
        },
        "details": {
          "type": "array",
          "items": {
            "$ref": "#/definitions/protobufAny"
          }
        }
      }
    }
  }
}
